{
  "recipe_id": "655d13ac-08e2-45cd-aff6-81766cc6198f",
  "name": "Salmon Skillet Supper",
  "serves": 4,
  "groceries": [
    {
      "name": "olive oil",
      "qty": 1.0,
      "unit": "TBLSPOON"
    },
    {
      "name": "garlic cloves",
      "qty": 6.0,
      "unit": "GRAMS"
    },
    {
      "name": "paprika",
      "qty": 1.0,
      "unit": "TEASPOON"
    },
    {
      "name": "cherry tomatoes",
      "qty": 1.0,
      "unit": "PINT"
    },
    {
      "name": "roasted red peppers",
      "qty": 12.0,
      "unit": "OUNCE"
    },
    {
      "name": "black pepper",
      "qty": 0.25,
      "unit": "TEASPOON"
    },
    {
      "name": "sea salt",
      "qty": 0.25,
      "unit": "TEASPOON"
    },
    {
      "name": "salmon fillets",
      "qty": 1.0,
      "unit": "POUND"
    },
    {
      "name": "lemon juice",
      "qty": 1.0,
      "unit": "TBLSPOON"
    }
  ]
}
