{
  "recipe_id": "708ab59d-af27-4ef3-95ad-021d8e623ebf",
  "name": "Roasted Veggie Panini",
  "serves": 4,
  "groceries": [
    {
      "name": "diced broccoli",
      "qty": 1.5,
      "unit": "CUP"
    },
    {
      "name": "olive oil",
      "qty": 3.0,
      "unit": "TBLSPOON"
    },
    {
      "name": "zucchini",
      "qty": 1.0,
      "unit": "CUP"
    },
    {
      "name": "onion",
      "qty": 0.25,
      "unit": "CUP"
    },
    {
      "name": "oregano",
      "qty": 0.25,
      "unit": "TEASPOON"
    },
    {
      "name": "black pepper",
      "qty": 0.25,
      "unit": "TEASPOON"
    },
    {
      "name": "sea salt",
      "qty": 0.25,
      "unit": "TEASPOON"
    },
    {
      "name": "roasted red peppers",
      "qty": 12.0,
      "unit": "OUNCE"
    },
    {
      "name": "parmesan",
      "qty": 2.0,
      "unit": "TBLSPOON"
    },
    {
      "name": "mozzarella",
      "qty": 1.0,
      "unit": "CUP"
    },
    {
      "name": "italian loaf",
      "qty": 1.0,
      "unit": "WHOLE"
    }
  ]
}
